{
  "website_name": "Solarus",
  "meta_title": "Solarus",
  "meta_title_separator": " - ",
  "meta_robots": "noindex, nofollow",
  "active_engine": true,
  "default_entity":  "page",
  "default_id":  "home",
  "default_language": "en",
  "languages": {
    "en" : "English",
    "fr" : "Français"
  }
}